%YAML 1.1
%TAG !u! tag:unity3d.com,2011:
--- !u!162 &1
EditorUserSettings:
  m_ObjectHideFlags: 0
  serializedVersion: 4
  m_ConfigSettings:
    RecentlyUsedScenePath-0:
      value: 22424703114646680e0b0227036c681918130a23282f23700e20092aa2c43135eda705eae2343a722c0ce6281d
      flags: 0
    RecentlyUsedScenePath-1:
      value: 224247031146466806170e2d086c6c1313191d6521292f3e1e2a183de7ae2136ebf32f
      flags: 0
    RecentlyUsedScenePath-2:
      value: 2242470311464679010702295f024d0459201d2b3c27282362051224d2ef3821adc333e4e875192e3c07d00e34193e08f70b1904f818352f3423d24004f1190708
      flags: 0
    RecentlyUsedScenePath-3:
      value: 224247031146467a0918092c04364d152934102b3e292524283b5200e1e53a3df1a812ecea357129370bfb25
      flags: 0
    RecentlyUsedScenePath-4:
      value: 22424703114646700818052c500a581c1304112b3f670b35212c1873d5e1262aebe824a9c63436313816e6330a2d4e12f7060c0eb63c0b190307f21c51b2503714c8178529cb1a12ce5709c0c409c8
      flags: 0
    RecentlyUsedScenePath-5:
      value: 22424703114646680e0b0227036c6c111b07142f1f2b233e2867083debf42d
      flags: 0
    vcSharedLogLevel:
      value: 0d5e400f0650
      flags: 0
  m_VCAutomaticAdd: 1
  m_VCDebugCom: 0
  m_VCDebugCmd: 0
  m_VCDebugOut: 0
  m_SemanticMergeMode: 2
  m_VCShowFailedCheckout: 1
  m_VCOverwriteFailedCheckoutAssets: 1
  m_VCProjectOverlayIcons: 1
  m_VCHierarchyOverlayIcons: 1
  m_VCOtherOverlayIcons: 1
  m_VCAllowAsyncUpdate: 1
